%YAML 1.1
%TAG !u! tag:unity3d.com,2011:
--- !u!114 &11400000
MonoBehaviour:
  m_ObjectHideFlags: 0
  m_CorrespondingSourceObject: {fileID: 0}
  m_PrefabInstance: {fileID: 0}
  m_PrefabAsset: {fileID: 0}
  m_GameObject: {fileID: 0}
  m_Enabled: 1
  m_EditorHideFlags: 0
  m_Script: {fileID: 11500000, guid: 46e204b11d8650345901dceda2a183bf, type: 3}
  m_Name: Colour
  m_EditorClassIdentifier: 
  planetMaterial: {fileID: 2100000, guid: 88966a125226bcc4d8b4655c560c8c1b, type: 2}
  biomeColourSettings:
    biomes:
    - gradient:
        serializedVersion: 2
        key0: {r: 0.8679245, g: 0.8607467, b: 0.5608757, a: 1}
        key1: {r: 0.41882187, g: 0.8490566, b: 0.38848346, a: 1}
        key2: {r: 0.9433962, g: 0.511382, b: 0.20914915, a: 0}
        key3: {r: 0.9811321, g: 0.80352104, b: 0.6803133, a: 0}
        key4: {r: 0, g: 0, b: 0, a: 0}
        key5: {r: 0, g: 0, b: 0, a: 0}
        key6: {r: 0, g: 0, b: 0, a: 0}
        key7: {r: 0, g: 0, b: 0, a: 0}
        ctime0: 10486
        ctime1: 20432
        ctime2: 53970
        ctime3: 64764
        ctime4: 0
        ctime5: 0
        ctime6: 0
        ctime7: 0
        atime0: 0
        atime1: 65535
        atime2: 0
        atime3: 0
        atime4: 0
        atime5: 0
        atime6: 0
        atime7: 0
        m_Mode: 0
        m_NumColorKeys: 4
        m_NumAlphaKeys: 2
      tint: {r: 0.23478512, g: 0.9245283, b: 0.100302614, a: 0}
      startHeight: 0.775
      tintPercent: 0
    - gradient:
        serializedVersion: 2
        key0: {r: 0.8679245, g: 0.8607467, b: 0.5608757, a: 1}
        key1: {r: 0.41882187, g: 0.8490566, b: 0.38848346, a: 1}
        key2: {r: 1, g: 1, b: 1, a: 0}
        key3: {r: 1, g: 1, b: 1, a: 0}
        key4: {r: 0, g: 0, b: 0, a: 0}
        key5: {r: 0, g: 0, b: 0, a: 0}
        key6: {r: 0, g: 0, b: 0, a: 0}
        key7: {r: 0, g: 0, b: 0, a: 0}
        ctime0: 10486
        ctime1: 20432
        ctime2: 65535
        ctime3: 65535
        ctime4: 0
        ctime5: 0
        ctime6: 0
        ctime7: 0
        atime0: 0
        atime1: 65535
        atime2: 0
        atime3: 0
        atime4: 0
        atime5: 0
        atime6: 0
        atime7: 0
        m_Mode: 0
        m_NumColorKeys: 3
        m_NumAlphaKeys: 2
      tint: {r: 1, g: 1, b: 1, a: 0}
      startHeight: 0.889
      tintPercent: 0.11
    - gradient:
        serializedVersion: 2
        key0: {r: 0.8679245, g: 0.8607467, b: 0.5608757, a: 1}
        key1: {r: 0.41882187, g: 0.8490566, b: 0.38848346, a: 1}
        key2: {r: 1, g: 1, b: 1, a: 0}
        key3: {r: 1, g: 1, b: 1, a: 0}
        key4: {r: 0, g: 0, b: 0, a: 0}
        key5: {r: 0, g: 0, b: 0, a: 0}
        key6: {r: 0, g: 0, b: 0, a: 0}
        key7: {r: 0, g: 0, b: 0, a: 0}
        ctime0: 10486
        ctime1: 20432
        ctime2: 65535
        ctime3: 65535
        ctime4: 0
        ctime5: 0
        ctime6: 0
        ctime7: 0
        atime0: 0
        atime1: 65535
        atime2: 0
        atime3: 0
        atime4: 0
        atime5: 0
        atime6: 0
        atime7: 0
        m_Mode: 0
        m_NumColorKeys: 3
        m_NumAlphaKeys: 2
      tint: {r: 1, g: 1, b: 1, a: 0}
      startHeight: 0.989
      tintPercent: 0
    noise:
      filterType: 0
      simpleNoiseSettings:
        strength: 1
        numLayers: 2
        baseRoughness: 1
        roughness: 2
        persistence: 0.92
        centre: {x: 0, y: 0, z: 0}
        minValue: 0
      ridgidNoiseSettings:
        strength: 1
        numLayers: 1
        baseRoughness: 1
        roughness: 2
        persistence: 0.5
        centre: {x: 0, y: 0, z: 0}
        minValue: 0
        weightMultiplier: 0.8
    noiseOffset: 0.43
    noiseStrength: 0.67
    blendAmount: 0.637
  oceanColour:
    serializedVersion: 2
    key0: {r: 0.11534355, g: 0.13172683, b: 0.9056604, a: 1}
    key1: {r: 0.06541473, g: 0.5421442, b: 0.9245283, a: 1}
    key2: {r: 0, g: 0, b: 0, a: 0}
    key3: {r: 0, g: 0, b: 0, a: 0}
    key4: {r: 0, g: 0, b: 0, a: 0}
    key5: {r: 0, g: 0, b: 0, a: 0}
    key6: {r: 0, g: 0, b: 0, a: 0}
    key7: {r: 0, g: 0, b: 0, a: 0}
    ctime0: 0
    ctime1: 65535
    ctime2: 0
    ctime3: 0
    ctime4: 0
    ctime5: 0
    ctime6: 0
    ctime7: 0
    atime0: 0
    atime1: 65535
    atime2: 0
    atime3: 0
    atime4: 0
    atime5: 0
    atime6: 0
    atime7: 0
    m_Mode: 0
    m_NumColorKeys: 2
    m_NumAlphaKeys: 2
